M. pectineus; Pecten ossis pubis; Linea pectinea; N. obturatorius (L2 – L4) und N. femoralis
M. obturatorius externus; Membrana obturatoria; Fossa trochanterica; N. obturatorius (L2 – L4)
M. adductor longus; R. superior ossis pubis + Symphyse; Linea aspera (Labium mediale); N. obturatorius (L2 – L4)
M. adductor brevis; R. inferior ossis pubis; Linea aspera (Labium mediale); N. obturatorius (L2 – L4)
M. adductor magnus; R. inferior ossis pubis + R. ossis ischii + Tuber ischiadicum; Linea aspera (Labium mediale) + Epicondylus medialis des Femurs; N. obturatorius (L2 – L4) + N. tibialis (L4 – L5)
M. adductor minimus; R. inferior ossis pubis; Linea aspera (Labium mediale); N. obturatorius (L2 – L4)
M. gracilis; R. inferior ossis pubis; Im Pes anserinus superficialis (medial der Tuberositas tibiae); N. obturatorius (L2 – L4)
M. gluteus medius + M. gluteus minimus; Facies glutea (Os ilium); Trochanter major; N. gluteus superior (L4-S1)
M. piriformis; Facies pelvica (Os sacrum); Trochanter major; Plexus sacralis (direkte Äste, L4-S2)
M. gemellus superior; Spina ischiadica; Fossa trochanterica; Plexus sacralis (direkte Äste, L4-S2)
M. gemellus inferior; Tuber ischiadicum; Fossa trochanterica; Plexus sacralis (direkte Äste, L4-S2)
M. obturatorius internus; Membrana obturatoria (Innenfläche); Fossa trochanterica; Plexus sacralis (direkte Äste, L4-S2)
M. quadratus femoris; Tuber ischiadicum; Crista intertrochanterica; Plexus sacralis (direkte Äste, L4-S2)